G04*
G04 #@! TF.GenerationSoftware,Altium Limited,Altium Designer,20.0.13 (296)*
G04*
G04 Layer_Physical_Order=1*
G04 Layer_Color=255*
%FSLAX44Y44*%
%MOMM*%
G71*
G01*
G75*
%ADD11C,0.2540*%
%ADD16R,3.4000X1.0000*%
%ADD17R,3.6000X1.5000*%
%ADD18R,0.6500X0.5500*%
%ADD19R,0.5500X0.6500*%
%ADD20R,2.9500X1.6800*%
%ADD21R,0.8000X0.6500*%
%ADD22R,0.6000X1.1000*%
%ADD23R,0.8000X0.4800*%
%ADD24R,1.0500X0.4500*%
%ADD25R,2.4000X0.7600*%
%ADD26R,1.0000X1.4500*%
%ADD27R,1.1000X1.4500*%
%ADD28R,0.9500X0.9000*%
%ADD29R,1.1000X0.6000*%
%ADD30R,1.4500X1.0000*%
%ADD31R,2.5000X1.7000*%
%ADD32R,1.6000X0.5500*%
%ADD33R,0.5500X1.6000*%
%ADD54C,0.7500*%
%ADD55C,0.5000*%
%ADD56C,0.3000*%
%ADD57C,0.4000*%
%ADD58C,4.2500*%
%ADD59C,0.6000*%
%ADD60C,0.7000*%
%ADD61C,0.8000*%
G36*
X2800250Y104501D02*
X2800250Y-22999D01*
X-180460Y-22999D01*
Y-3210D01*
X-221540D01*
X-222250Y-2234D01*
X-222250Y83734D01*
X-220980Y84710D01*
X-180460D01*
Y104501D01*
X2800250Y104501D01*
D02*
G37*
%LPC*%
G36*
X362500Y98159D02*
X360143Y97690D01*
X359078Y96978D01*
X357808Y97621D01*
Y97621D01*
X347809D01*
Y97621D01*
X337229D01*
Y97209D01*
X335959Y96530D01*
X335180Y97050D01*
X333019Y97480D01*
X330857Y97050D01*
X329025Y95826D01*
X327800Y93993D01*
X327370Y91831D01*
X327800Y89670D01*
X329025Y87837D01*
X329888Y87260D01*
X329503Y85990D01*
X327960D01*
Y74560D01*
X327960Y73310D01*
X327960Y72040D01*
Y61860D01*
X327960Y60590D01*
X327960Y59340D01*
Y49160D01*
X327960Y47910D01*
X327960Y46784D01*
Y45377D01*
X326513Y45089D01*
X325253Y44247D01*
X324060Y43054D01*
X322790Y43580D01*
Y47461D01*
X322790D01*
Y58040D01*
X322790D01*
Y66040D01*
X322790D01*
Y74040D01*
X302947D01*
X301790Y74040D01*
X301790Y75197D01*
Y95040D01*
X285790D01*
Y95040D01*
X275210D01*
Y95040D01*
X269790D01*
Y95040D01*
X261790D01*
Y95040D01*
X251210D01*
Y95040D01*
X243210D01*
Y95040D01*
X235210D01*
Y89878D01*
X233940Y89199D01*
X233162Y89719D01*
X231000Y90149D01*
X228838Y89719D01*
X227006Y88494D01*
X225781Y86662D01*
X225351Y84500D01*
X225781Y82339D01*
X227006Y80506D01*
X228838Y79282D01*
X231000Y78852D01*
X233162Y79282D01*
X233940Y79802D01*
X235210Y79123D01*
Y75197D01*
X235210Y74040D01*
X234053Y74040D01*
X214210D01*
Y72870D01*
X211290D01*
Y74040D01*
X199710D01*
Y63460D01*
X211290D01*
Y64631D01*
X214210D01*
Y63460D01*
X235290D01*
Y72803D01*
X235290Y73960D01*
X236447Y73960D01*
X244214D01*
X244470Y72690D01*
X243281Y70912D01*
X242852Y68750D01*
X243281Y66589D01*
X244506Y64756D01*
X246338Y63532D01*
X248500Y63102D01*
X249621Y63325D01*
X250803Y63013D01*
X250972Y62397D01*
X251281Y60839D01*
X252506Y59006D01*
X254338Y57782D01*
X256500Y57352D01*
X258662Y57782D01*
X260494Y59006D01*
X261719Y60839D01*
X262029Y62397D01*
X262197Y63013D01*
X263379Y63325D01*
X264500Y63102D01*
X266662Y63532D01*
X268494Y64756D01*
X269719Y66589D01*
X270149Y68750D01*
X269719Y70912D01*
X268530Y72690D01*
X268786Y73960D01*
X277790D01*
Y73960D01*
X283210D01*
Y73960D01*
X300553D01*
X301710Y73960D01*
X301710Y72803D01*
Y63460D01*
X301710D01*
Y57037D01*
X300440Y56781D01*
X298662Y57969D01*
X296500Y58399D01*
X294338Y57969D01*
X292506Y56744D01*
X292010Y56002D01*
X290740D01*
X290244Y56745D01*
X288412Y57969D01*
X286250Y58399D01*
X284088Y57969D01*
X282256Y56745D01*
X281760Y56002D01*
X280490D01*
X279994Y56745D01*
X278161Y57969D01*
X276000Y58399D01*
X273838Y57969D01*
X272006Y56745D01*
X271510Y56002D01*
X270240D01*
X269744Y56745D01*
X267911Y57969D01*
X265750Y58399D01*
X263588Y57969D01*
X261756Y56745D01*
X260531Y54912D01*
X260101Y52751D01*
X260531Y50589D01*
X261756Y48756D01*
X263588Y47532D01*
X265750Y47102D01*
X265879Y47128D01*
X287003Y26003D01*
X288263Y25161D01*
X289750Y24866D01*
X301710D01*
Y23460D01*
X301710D01*
Y15460D01*
X301710D01*
Y8697D01*
X301710Y7540D01*
X300553Y7540D01*
X293790D01*
Y7540D01*
X293750D01*
X293071Y8810D01*
X293719Y9779D01*
X294149Y11940D01*
X293719Y14102D01*
X292494Y15934D01*
X290662Y17159D01*
X288500Y17589D01*
X287420Y17374D01*
X286340Y18454D01*
X286399Y18750D01*
X285968Y20912D01*
X284744Y22744D01*
X282912Y23969D01*
X280750Y24399D01*
X278588Y23969D01*
X276756Y22744D01*
X275531Y20912D01*
X275102Y18750D01*
X275196Y18273D01*
X274088Y17333D01*
X272500Y17649D01*
X271172Y17385D01*
X270092Y18465D01*
X270149Y18750D01*
X269718Y20912D01*
X268494Y22744D01*
X266662Y23969D01*
X264500Y24399D01*
X262338Y23969D01*
X260506Y22744D01*
X259281Y20912D01*
X258852Y18750D01*
X258908Y18465D01*
X257828Y17385D01*
X256500Y17649D01*
X254338Y17219D01*
X252506Y15994D01*
X251281Y14162D01*
X250851Y12000D01*
X251281Y9839D01*
X251969Y8810D01*
X251290Y7540D01*
X251210D01*
Y7540D01*
X245790D01*
Y7540D01*
X236447D01*
X235290Y7540D01*
X235290Y8697D01*
Y15460D01*
X235290D01*
Y16981D01*
X236559Y17234D01*
X237819Y18076D01*
X243497Y23754D01*
X244339Y25014D01*
X244635Y26500D01*
Y30933D01*
X244744Y31006D01*
X245969Y32839D01*
X246399Y35001D01*
X245969Y37162D01*
X244744Y38995D01*
X242912Y40219D01*
X240750Y40649D01*
X238588Y40219D01*
X236756Y38995D01*
X236560Y38701D01*
X235290Y39087D01*
Y42040D01*
X214210D01*
Y34040D01*
X214210D01*
Y24644D01*
X211209D01*
Y36059D01*
X211209D01*
X210926Y37329D01*
X211213Y37702D01*
X211872Y39293D01*
X212097Y41000D01*
X211872Y42708D01*
X211213Y44299D01*
X210164Y45665D01*
X208798Y46713D01*
X208465Y46851D01*
X208717Y48121D01*
X214210D01*
Y47460D01*
X235290D01*
Y58040D01*
X214210D01*
Y57379D01*
X199540D01*
Y58041D01*
X187960D01*
X187790Y58541D01*
X177790D01*
Y58541D01*
X167210D01*
Y46961D01*
X167210Y46961D01*
X167210D01*
X167210Y46961D01*
X166972Y45789D01*
X166787Y45549D01*
X166128Y43958D01*
X165904Y42250D01*
X166128Y40543D01*
X166787Y38952D01*
X167836Y37586D01*
X168158Y37339D01*
X168117Y36069D01*
X167256Y35494D01*
X166518Y34390D01*
X165290Y34290D01*
X165290Y34290D01*
X163001D01*
X162750Y34340D01*
X151750D01*
X151499Y34290D01*
X149210D01*
Y32000D01*
X149160Y31750D01*
Y9662D01*
Y7590D01*
X138500Y7590D01*
X137509Y7393D01*
X136669Y6831D01*
X136611Y6746D01*
X135899D01*
Y-12834D01*
X138474D01*
X138500Y-12839D01*
X162750Y-12839D01*
X163741Y-12642D01*
X164581Y-12081D01*
X165142Y-11241D01*
X165241Y-10744D01*
X165402Y-10627D01*
X166468Y-10324D01*
X166576Y-10332D01*
X167741Y-11497D01*
X169001Y-12339D01*
X170488Y-12635D01*
X171960D01*
Y-14540D01*
X185040D01*
Y-2960D01*
X185040D01*
Y5296D01*
X185247Y5503D01*
X186089Y6763D01*
X186182Y7229D01*
X188209D01*
Y7229D01*
X189784D01*
Y5540D01*
X186960D01*
Y-6040D01*
X186960D01*
Y-14540D01*
X200040D01*
Y-12869D01*
X202667D01*
X203086Y-13414D01*
X204452Y-14463D01*
X206043Y-15122D01*
X207750Y-15346D01*
X209457Y-15122D01*
X211048Y-14463D01*
X212414Y-13414D01*
X213463Y-12048D01*
X214122Y-10457D01*
X214346Y-8750D01*
X214122Y-7043D01*
X213463Y-5452D01*
X212414Y-4086D01*
X211048Y-3037D01*
X209457Y-2378D01*
X207750Y-2154D01*
X206043Y-2378D01*
X204452Y-3037D01*
X203086Y-4086D01*
X202667Y-4631D01*
X200040D01*
Y-2960D01*
X200040D01*
Y5540D01*
X197554D01*
Y7229D01*
X199459D01*
Y14280D01*
X199629Y15479D01*
X200729Y15479D01*
X211209D01*
Y16875D01*
X214210D01*
Y7460D01*
X219540D01*
X220219Y6190D01*
X219531Y5162D01*
X219102Y3000D01*
X219531Y839D01*
X220756Y-994D01*
X222588Y-2218D01*
X224750Y-2648D01*
X226912Y-2218D01*
X228744Y-994D01*
X229969Y839D01*
X230399Y3000D01*
X229969Y5162D01*
X229282Y6190D01*
X229960Y7460D01*
X234053D01*
X235210Y7460D01*
X235210Y6303D01*
Y-13540D01*
X243210D01*
Y-13540D01*
X253790D01*
Y-13540D01*
X259210D01*
Y-13540D01*
X275210D01*
Y-13540D01*
X285790D01*
Y-13540D01*
X291210D01*
Y-13540D01*
X301790D01*
Y-8010D01*
X302022Y-7826D01*
X303060Y-7447D01*
X304588Y-8468D01*
X306750Y-8898D01*
X308912Y-8468D01*
X310744Y-7244D01*
X311968Y-5411D01*
X312398Y-3250D01*
X311968Y-1088D01*
X310744Y744D01*
X308912Y1969D01*
X306750Y2399D01*
X304588Y1969D01*
X303060Y948D01*
X302022Y1327D01*
X301790Y1510D01*
Y6303D01*
X301790Y7460D01*
X302947Y7460D01*
X308989D01*
X309181Y6494D01*
X310023Y5233D01*
X317172Y-1915D01*
X318432Y-2757D01*
X319919Y-3053D01*
X327451D01*
X327525Y-3163D01*
X329357Y-4387D01*
X331519Y-4817D01*
X333680Y-4387D01*
X334459Y-3867D01*
X335729Y-4546D01*
Y-4958D01*
X344441D01*
X345710Y-4960D01*
Y-16540D01*
X356290D01*
Y-16540D01*
X357403Y-15945D01*
X358143Y-16439D01*
X360500Y-16908D01*
X362857Y-16439D01*
X364855Y-15104D01*
X365460Y-14690D01*
X378540D01*
Y-9467D01*
X378809Y-9247D01*
X380006Y-8994D01*
X381838Y-10218D01*
X384000Y-10648D01*
X386162Y-10218D01*
X387994Y-8994D01*
X389219Y-7161D01*
X389649Y-5000D01*
X389219Y-2838D01*
X387994Y-1006D01*
X387439Y-635D01*
Y635D01*
X387994Y1006D01*
X389219Y2839D01*
X389649Y5000D01*
X389219Y7162D01*
X387994Y8994D01*
X386162Y10219D01*
X384000Y10649D01*
X381838Y10219D01*
X380006Y8994D01*
X378809Y9247D01*
X378540Y9468D01*
Y14690D01*
X365460D01*
Y13870D01*
X363500D01*
X361924Y13556D01*
X360587Y12663D01*
X357587Y9663D01*
X357560Y9622D01*
X356290Y10007D01*
Y18290D01*
X335710D01*
Y17878D01*
X334440Y17199D01*
X333662Y17719D01*
X331500Y18149D01*
X331371Y18123D01*
X328254Y21240D01*
X328780Y22510D01*
X328799Y22510D01*
Y22510D01*
X328890Y22510D01*
X357040D01*
Y35190D01*
X357040D01*
X357040Y35210D01*
X357040D01*
Y46640D01*
X357040Y47890D01*
X357040Y49017D01*
Y59340D01*
X357040Y60610D01*
X357040Y61860D01*
Y72040D01*
X357040Y73290D01*
X357040Y74560D01*
Y85990D01*
X357808Y86041D01*
Y86343D01*
X359078Y87022D01*
X360143Y86311D01*
X362500Y85842D01*
X364857Y86311D01*
X366855Y87646D01*
X368190Y89644D01*
X368658Y92000D01*
X368190Y94357D01*
X366855Y96355D01*
X364857Y97690D01*
X362500Y98159D01*
D02*
G37*
G36*
X515500Y98659D02*
X513143Y98190D01*
X512596Y97824D01*
X511540Y97290D01*
Y97290D01*
X511540Y97290D01*
X495960D01*
Y90790D01*
X495960D01*
Y81210D01*
X495960D01*
Y77790D01*
X495960D01*
Y76885D01*
X494317D01*
X494244Y76994D01*
X492412Y78219D01*
X490250Y78649D01*
X488088Y78219D01*
X486256Y76994D01*
X485031Y75162D01*
X484602Y73000D01*
X485031Y70839D01*
X486256Y69006D01*
X488088Y67782D01*
X490250Y67352D01*
X492412Y67782D01*
X494244Y69006D01*
X494317Y69116D01*
X495960D01*
Y64790D01*
X495960D01*
Y63885D01*
X494317D01*
X494244Y63994D01*
X492412Y65219D01*
X490250Y65649D01*
X488088Y65219D01*
X486256Y63994D01*
X485031Y62162D01*
X484602Y60000D01*
X485031Y57839D01*
X486256Y56006D01*
X488088Y54782D01*
X490250Y54352D01*
X492412Y54782D01*
X494244Y56006D01*
X494317Y56116D01*
X495960D01*
Y55210D01*
X495960D01*
Y51790D01*
X495960D01*
Y50885D01*
X494317D01*
X494244Y50994D01*
X492412Y52219D01*
X490250Y52649D01*
X488088Y52219D01*
X486256Y50994D01*
X485031Y49162D01*
X484602Y47000D01*
X485031Y44839D01*
X486256Y43006D01*
X488088Y41782D01*
X488742Y41652D01*
X489111Y40436D01*
X488837Y40163D01*
X487944Y38826D01*
X487631Y37250D01*
Y29280D01*
X486460Y29040D01*
D01*
X485190Y28383D01*
X484357Y28940D01*
X482000Y29409D01*
X479643Y28940D01*
X477645Y27605D01*
X477014Y26660D01*
X475486D01*
X474855Y27605D01*
X472857Y28940D01*
X470500Y29409D01*
X468143Y28940D01*
X467310Y28383D01*
X466040Y29040D01*
D01*
X464869Y29280D01*
Y37750D01*
X464556Y39326D01*
X463663Y40663D01*
X460913Y43413D01*
X459576Y44306D01*
X458000Y44619D01*
X456040D01*
Y45290D01*
X456040D01*
Y47288D01*
X456225Y47518D01*
X457310Y48188D01*
X459000Y47852D01*
X461161Y48282D01*
X462994Y49506D01*
X464218Y51339D01*
X464648Y53500D01*
X464218Y55662D01*
X462994Y57494D01*
X461161Y58719D01*
X459000Y59149D01*
X457310Y58813D01*
X456595Y59254D01*
X456452Y59743D01*
X456498Y60319D01*
X457627Y61125D01*
X459000Y60852D01*
X461161Y61282D01*
X462994Y62506D01*
X464218Y64339D01*
X464648Y66500D01*
X464218Y68662D01*
X462994Y70494D01*
X461161Y71719D01*
X459000Y72149D01*
X457310Y71813D01*
X456225Y72482D01*
X456040Y72713D01*
Y74710D01*
X456040D01*
Y84290D01*
X456040D01*
Y90790D01*
X440460D01*
Y81210D01*
X439554Y80331D01*
X439190Y80198D01*
X437662Y81219D01*
X435500Y81649D01*
X433338Y81219D01*
X431560Y80031D01*
X431033Y80137D01*
X430290Y80363D01*
Y87290D01*
X430290D01*
X430103Y87641D01*
X430939Y88893D01*
X431408Y91250D01*
X430939Y93607D01*
X429605Y95605D01*
X427607Y96940D01*
X425250Y97409D01*
X422893Y96940D01*
X420895Y95605D01*
X419561Y93607D01*
X419092Y91250D01*
X419561Y88893D01*
X420120Y88056D01*
X419710Y87290D01*
X419710D01*
Y76790D01*
X419460D01*
Y61135D01*
X411540D01*
Y76790D01*
X400460D01*
Y60710D01*
X402115D01*
Y58738D01*
X402411Y57252D01*
X403253Y55991D01*
X404741Y54503D01*
X406001Y53661D01*
X407488Y53366D01*
X423512D01*
X424999Y53661D01*
X426259Y54503D01*
X427747Y55991D01*
X428589Y57252D01*
X428885Y58738D01*
Y60710D01*
X430540D01*
Y71340D01*
X431810Y71803D01*
X433338Y70782D01*
X435500Y70352D01*
X435811Y70414D01*
X435971Y70254D01*
X437231Y69411D01*
X438718Y69116D01*
X440460D01*
Y68210D01*
X440460D01*
Y66097D01*
X439190Y65313D01*
X437500Y65649D01*
X435339Y65219D01*
X433506Y63994D01*
X432282Y62162D01*
X431852Y60000D01*
X432282Y57839D01*
X433506Y56006D01*
X435339Y54782D01*
X437500Y54352D01*
X439190Y54688D01*
X440460Y53904D01*
Y51790D01*
X440460D01*
Y50445D01*
X440310D01*
X438823Y50149D01*
X437654Y49368D01*
X437500Y49399D01*
X435338Y48969D01*
X433506Y47744D01*
X432281Y45912D01*
X431852Y43750D01*
X432281Y41589D01*
X433506Y39756D01*
X433874Y39510D01*
Y38240D01*
X433506Y37994D01*
X432281Y36162D01*
X431852Y34000D01*
X432281Y31839D01*
X433506Y30006D01*
X435338Y28782D01*
X437500Y28352D01*
X439662Y28782D01*
X439977Y28993D01*
X440460Y29210D01*
X454261D01*
X455460Y29040D01*
X455460Y28180D01*
Y17460D01*
X456716D01*
X456841Y16190D01*
X455320Y15888D01*
X454542Y15367D01*
X453271Y16046D01*
Y16459D01*
X442691D01*
Y16459D01*
X432691D01*
Y5209D01*
X432691D01*
Y-5926D01*
X431760Y-6555D01*
X431440Y-6617D01*
X430607Y-6060D01*
X428250Y-5591D01*
X425893Y-6060D01*
X424598Y-6926D01*
X424476Y-6844D01*
X423040Y-6558D01*
Y1690D01*
X423040D01*
Y8190D01*
X411334D01*
X410737Y8589D01*
X409250Y8885D01*
X408817D01*
X408744Y8994D01*
X406912Y10219D01*
X404750Y10649D01*
X402588Y10219D01*
X400756Y8994D01*
X399531Y7162D01*
X399101Y5000D01*
X399531Y2839D01*
X400756Y1006D01*
X401311Y635D01*
Y-635D01*
X400756Y-1006D01*
X399531Y-2838D01*
X399101Y-5000D01*
X399531Y-7161D01*
X400756Y-8994D01*
X402588Y-10218D01*
X404750Y-10648D01*
X406912Y-10218D01*
X408690Y-9030D01*
X409667Y-9227D01*
X409960Y-9467D01*
Y-14690D01*
X417002D01*
X417400Y-14769D01*
X421247D01*
X422424Y-15555D01*
X423698Y-15809D01*
X423895Y-16104D01*
X425893Y-17439D01*
X428250Y-17908D01*
X430607Y-17439D01*
X431440Y-16883D01*
X432710Y-17540D01*
Y-17540D01*
X443290D01*
Y-6371D01*
X453271D01*
Y-5958D01*
X454541Y-5279D01*
X455320Y-5799D01*
X457481Y-6230D01*
X459643Y-5799D01*
X461475Y-4575D01*
X462700Y-2743D01*
X462896Y-1759D01*
X466359Y1704D01*
X515838D01*
X517325Y2000D01*
X518585Y2842D01*
X530997Y15254D01*
X531839Y16514D01*
X532135Y18001D01*
Y28683D01*
X532244Y28756D01*
X532317Y28866D01*
X550460D01*
Y18960D01*
X561040D01*
Y18960D01*
X562153Y19555D01*
X562893Y19061D01*
X565250Y18592D01*
X567607Y19061D01*
X569605Y20396D01*
X570939Y22394D01*
X571408Y24750D01*
X570939Y27107D01*
X570513Y27746D01*
X571111Y28866D01*
X803391D01*
X844253Y-11996D01*
X845513Y-12838D01*
X847000Y-13134D01*
X908000D01*
X909487Y-12838D01*
X910747Y-11996D01*
X951609Y28866D01*
X1569933D01*
X1570006Y28756D01*
X1571838Y27532D01*
X1574000Y27102D01*
X1576162Y27532D01*
X1577994Y28756D01*
X1578067Y28866D01*
X1594960D01*
Y25149D01*
X1594881Y24750D01*
X1594960Y24352D01*
Y18960D01*
X1605540D01*
Y18960D01*
X1606810Y19618D01*
X1607643Y19061D01*
X1610000Y18592D01*
X1612357Y19061D01*
X1614355Y20396D01*
X1615690Y22394D01*
X1616158Y24750D01*
X1615690Y27107D01*
X1615263Y27746D01*
X1615862Y28866D01*
X1722391Y28866D01*
X1762253Y-10996D01*
X1763513Y-11838D01*
X1765000Y-12134D01*
X1854250D01*
X1855737Y-11838D01*
X1856997Y-10996D01*
X1896859Y28866D01*
X2618746Y28866D01*
X2618986Y28506D01*
X2620818Y27282D01*
X2622980Y26852D01*
X2625142Y27282D01*
X2626974Y28506D01*
X2628199Y30339D01*
X2628629Y32500D01*
X2628199Y34662D01*
X2626974Y36494D01*
X2625142Y37719D01*
X2624121Y37922D01*
X2623949Y38339D01*
X2624379Y40500D01*
X2623949Y42662D01*
X2622724Y44494D01*
X2620892Y45719D01*
X2618730Y46149D01*
X2616569Y45719D01*
X2614759Y44510D01*
X1890375D01*
X1888888Y44214D01*
X1887628Y43372D01*
X1844891Y635D01*
X1773109D01*
X1730372Y43372D01*
X1729112Y44214D01*
X1727625Y44510D01*
X1570651D01*
X1570494Y44744D01*
X1568662Y45969D01*
X1566500Y46399D01*
X1564338Y45969D01*
X1562506Y44744D01*
X1562433Y44635D01*
X950750Y44635D01*
X949263Y44339D01*
X948003Y43497D01*
X904391Y-115D01*
X851359D01*
X807747Y43497D01*
X806487Y44339D01*
X805000Y44635D01*
X528067D01*
X527994Y44745D01*
X526162Y45969D01*
X524000Y46399D01*
X521838Y45969D01*
X520006Y44745D01*
X519189Y43522D01*
X517919Y43907D01*
Y45857D01*
X521406Y49345D01*
X522248Y50605D01*
X522485Y51798D01*
X523276Y52260D01*
X523814Y52384D01*
X525088Y51532D01*
X527250Y51102D01*
X529412Y51532D01*
X531109Y52666D01*
X531718Y52511D01*
X532379Y52168D01*
Y51479D01*
X543959D01*
Y62059D01*
X544984Y62650D01*
X548129D01*
Y61479D01*
X548129D01*
Y51479D01*
X559709D01*
X559709Y51479D01*
X560966Y51448D01*
X562375Y50507D01*
X564537Y50077D01*
X566698Y50507D01*
X568531Y51732D01*
X569046Y52503D01*
X569137D01*
X570624Y52799D01*
X571884Y53641D01*
X573497Y55254D01*
X574339Y56514D01*
X574635Y58000D01*
Y67751D01*
X574339Y69237D01*
X573497Y70497D01*
X571327Y72667D01*
X570067Y73509D01*
X569632Y73596D01*
X569757Y74866D01*
X857613D01*
X857972Y73596D01*
X854854Y71686D01*
X850292Y67789D01*
X846395Y63226D01*
X843260Y58110D01*
X840964Y52567D01*
X839563Y46732D01*
X839092Y40750D01*
X839563Y34769D01*
X840964Y28934D01*
X843260Y23391D01*
X846395Y18275D01*
X850292Y13712D01*
X854854Y9815D01*
X859970Y6680D01*
X865514Y4384D01*
X871348Y2983D01*
X877330Y2513D01*
X883312Y2983D01*
X889146Y4384D01*
X894690Y6680D01*
X899806Y9815D01*
X904368Y13712D01*
X908265Y18275D01*
X911400Y23391D01*
X913696Y28934D01*
X915097Y34769D01*
X915568Y40750D01*
X915097Y46732D01*
X913696Y52567D01*
X911400Y58110D01*
X908265Y63226D01*
X904368Y67789D01*
X899806Y71686D01*
X896689Y73596D01*
X897047Y74866D01*
X1606479D01*
X1607695Y73650D01*
X1607223Y72326D01*
X1605979Y71495D01*
X1604709Y72059D01*
Y72059D01*
X1593129D01*
Y70879D01*
X1588459D01*
Y72059D01*
X1576879D01*
Y60635D01*
X1575567D01*
X1575494Y60745D01*
X1573662Y61969D01*
X1571500Y62399D01*
X1569338Y61969D01*
X1567506Y60745D01*
X1566281Y58912D01*
X1565851Y56750D01*
X1566281Y54589D01*
X1567506Y52756D01*
X1569338Y51532D01*
X1571500Y51102D01*
X1573662Y51532D01*
X1575494Y52756D01*
X1575567Y52866D01*
X1576879D01*
Y51479D01*
X1588459D01*
Y62641D01*
X1593129D01*
Y61479D01*
X1593129D01*
Y51479D01*
X1604709D01*
Y52206D01*
X1605336Y52521D01*
X1605979Y52684D01*
X1607676Y51551D01*
X1609837Y51121D01*
X1611999Y51551D01*
X1613832Y52775D01*
X1614031Y53074D01*
X1614565Y53180D01*
X1615826Y54022D01*
X1619807Y58004D01*
X1620649Y59264D01*
X1620945Y60750D01*
Y69778D01*
X1620649Y71265D01*
X1619807Y72525D01*
X1613560Y78773D01*
X1614046Y79946D01*
X1806649D01*
X1806699Y78676D01*
X1804688Y78518D01*
X1798854Y77117D01*
X1793310Y74821D01*
X1788194Y71686D01*
X1783632Y67789D01*
X1779735Y63226D01*
X1776600Y58110D01*
X1774304Y52567D01*
X1772903Y46732D01*
X1772432Y40750D01*
X1772903Y34769D01*
X1774304Y28934D01*
X1776600Y23391D01*
X1779735Y18275D01*
X1783632Y13712D01*
X1788194Y9815D01*
X1793310Y6680D01*
X1798854Y4384D01*
X1804688Y2983D01*
X1810670Y2513D01*
X1816652Y2983D01*
X1822486Y4384D01*
X1828030Y6680D01*
X1833146Y9815D01*
X1837708Y13712D01*
X1841605Y18275D01*
X1844740Y23391D01*
X1847036Y28934D01*
X1848437Y34769D01*
X1848908Y40750D01*
X1848437Y46732D01*
X1847036Y52567D01*
X1844740Y58110D01*
X1841605Y63226D01*
X1837708Y67789D01*
X1833146Y71686D01*
X1828030Y74821D01*
X1822486Y77117D01*
X1816652Y78518D01*
X1814641Y78676D01*
X1814691Y79946D01*
X2653811D01*
X2659725Y74032D01*
X2659162Y72799D01*
X2657179Y72404D01*
X2655560Y71322D01*
X2654290Y71790D01*
Y71790D01*
X2642710D01*
Y70629D01*
X2638459D01*
Y71809D01*
X2626879D01*
Y60395D01*
X2625561D01*
X2625494Y60495D01*
X2623661Y61719D01*
X2621500Y62149D01*
X2619338Y61719D01*
X2617506Y60495D01*
X2616281Y58662D01*
X2615851Y56501D01*
X2616281Y54339D01*
X2617506Y52506D01*
X2619338Y51282D01*
X2621500Y50852D01*
X2623661Y51282D01*
X2625494Y52506D01*
X2625573Y52625D01*
X2626879D01*
Y51229D01*
X2638459D01*
Y62391D01*
X2642710D01*
Y51210D01*
X2654290D01*
Y52625D01*
X2655608D01*
X2655675Y52525D01*
X2657507Y51301D01*
X2659669Y50871D01*
X2661830Y51301D01*
X2663663Y52525D01*
X2663730Y52625D01*
X2664009D01*
X2665496Y52921D01*
X2666756Y53763D01*
X2670622Y57629D01*
X2671464Y58889D01*
X2671760Y60375D01*
Y71375D01*
X2671464Y72862D01*
X2670622Y74122D01*
X2658167Y86577D01*
X2656907Y87420D01*
X2655420Y87715D01*
X521094D01*
X520415Y88985D01*
X521189Y90144D01*
X521658Y92500D01*
X521189Y94857D01*
X519855Y96855D01*
X517857Y98190D01*
X515500Y98659D01*
D02*
G37*
G36*
X2779489Y87751D02*
X2778011D01*
X2776562Y87462D01*
X2775197Y86897D01*
X2773969Y86076D01*
X2772924Y85031D01*
X2772104Y83803D01*
X2771538Y82438D01*
X2771250Y80989D01*
Y79512D01*
X2771538Y78063D01*
X2772104Y76698D01*
X2772924Y75469D01*
X2773969Y74425D01*
X2775197Y73604D01*
X2776562Y73039D01*
X2778011Y72751D01*
X2779489D01*
X2780938Y73039D01*
X2782303Y73604D01*
X2783531Y74425D01*
X2784576Y75469D01*
X2785396Y76698D01*
X2785962Y78063D01*
X2786250Y79512D01*
Y80989D01*
X2785962Y82438D01*
X2785396Y83803D01*
X2784576Y85031D01*
X2783531Y86076D01*
X2782303Y86897D01*
X2780938Y87462D01*
X2779489Y87751D01*
D02*
G37*
G36*
X22250Y95340D02*
X-127750D01*
X-128741Y95143D01*
X-129581Y94582D01*
X-138831Y85332D01*
X-144831Y79332D01*
X-145393Y78492D01*
X-145433Y78290D01*
X-145540D01*
Y77751D01*
X-145590Y77501D01*
Y77066D01*
X-145603Y77038D01*
X-146860Y76122D01*
X-148250Y76399D01*
X-150412Y75969D01*
X-152244Y74745D01*
X-153469Y72912D01*
X-153898Y70750D01*
X-153469Y68589D01*
X-152244Y66756D01*
X-150412Y65532D01*
X-148250Y65102D01*
X-146810Y65388D01*
X-145573Y64511D01*
X-145540Y64445D01*
Y63210D01*
X-143248D01*
X-143000Y63161D01*
X-105500Y63161D01*
X-104509Y63358D01*
X-103669Y63919D01*
X-88177Y79411D01*
X-63702Y79411D01*
X-63552Y78141D01*
X-67816Y77117D01*
X-73360Y74821D01*
X-78476Y71686D01*
X-83038Y67789D01*
X-86935Y63226D01*
X-90070Y58110D01*
X-92366Y52567D01*
X-93767Y46732D01*
X-94238Y40750D01*
X-93767Y34769D01*
X-92366Y28934D01*
X-90070Y23391D01*
X-86935Y18275D01*
X-83038Y13712D01*
X-78476Y9815D01*
X-73360Y6680D01*
X-67816Y4384D01*
X-61982Y2983D01*
X-56000Y2513D01*
X-50018Y2983D01*
X-44184Y4384D01*
X-38640Y6680D01*
X-33524Y9815D01*
X-28962Y13712D01*
X-25065Y18275D01*
X-21930Y23391D01*
X-19634Y28934D01*
X-18233Y34769D01*
X-17762Y40750D01*
X-18233Y46732D01*
X-19634Y52567D01*
X-21930Y58110D01*
X-25065Y63226D01*
X-28962Y67789D01*
X-33524Y71686D01*
X-38640Y74821D01*
X-44184Y77117D01*
X-48448Y78141D01*
X-48298Y79411D01*
X-28823Y79411D01*
X-17331Y67919D01*
X-16491Y67358D01*
X-15500Y67161D01*
X22250D01*
X22499Y67210D01*
X24790D01*
Y69500D01*
X24840Y69750D01*
Y92751D01*
X24643Y93742D01*
X24081Y94582D01*
X23241Y95143D01*
X22250Y95340D01*
D02*
G37*
G36*
X170750Y96340D02*
X152500D01*
X151841Y96209D01*
X149941D01*
Y93906D01*
X149910Y93750D01*
Y84340D01*
X149750D01*
X149500Y84290D01*
X147210D01*
Y82000D01*
X147160Y81750D01*
Y75750D01*
X147210Y75500D01*
Y73210D01*
X149500D01*
X149750Y73161D01*
X170750D01*
X171741Y73358D01*
X172401Y73060D01*
X172780Y71690D01*
X172287Y71048D01*
X171628Y69458D01*
X171404Y67750D01*
X171628Y66043D01*
X172287Y64452D01*
X173336Y63086D01*
X174702Y62038D01*
X176293Y61379D01*
X178000Y61154D01*
X179707Y61379D01*
X181298Y62038D01*
X182664Y63086D01*
X183713Y64452D01*
X184372Y66043D01*
X184596Y67750D01*
X184372Y69458D01*
X183713Y71048D01*
X182899Y72109D01*
X183271Y73379D01*
X183271D01*
Y84710D01*
X183290D01*
Y96290D01*
X172710D01*
Y96290D01*
X171000D01*
X170750Y96340D01*
D02*
G37*
G36*
X396040Y85990D02*
X366960D01*
Y74560D01*
X366960Y73290D01*
X366960Y72040D01*
Y61860D01*
X366960Y60610D01*
X366960Y59484D01*
Y47910D01*
X396040D01*
Y59340D01*
X396040Y60590D01*
X396040Y61717D01*
Y72040D01*
X396040Y73310D01*
X396040Y74560D01*
Y85990D01*
D02*
G37*
G36*
X121750Y89590D02*
X71250D01*
X70999Y89540D01*
X68710D01*
Y87251D01*
X68660Y87000D01*
Y73500D01*
X68710Y73249D01*
Y67460D01*
X98790D01*
Y70900D01*
X118335D01*
X119160Y69972D01*
Y66250D01*
X119210Y66001D01*
Y63710D01*
X119210Y63710D01*
X119160Y62750D01*
X119160Y62444D01*
Y51925D01*
X103000D01*
X102009Y51728D01*
X101169Y51166D01*
X100607Y50326D01*
X100410Y49335D01*
Y36764D01*
X100607Y35773D01*
X101169Y34933D01*
X102009Y34371D01*
X103000Y34174D01*
X119160D01*
Y17250D01*
X119210Y17001D01*
Y14710D01*
X121500D01*
X121750Y14661D01*
X132750D01*
X133000Y14710D01*
X135290D01*
Y16999D01*
X135340Y17250D01*
Y42210D01*
X137000D01*
X137250Y42161D01*
X160750Y42161D01*
X161741Y42358D01*
X162581Y42919D01*
X163143Y43759D01*
X163340Y44750D01*
X163340Y62750D01*
X163290Y63000D01*
Y65290D01*
X161000D01*
X160750Y65340D01*
X149750Y65340D01*
X149500Y65290D01*
X147210D01*
Y63001D01*
X147160Y62750D01*
Y53840D01*
X137250Y53840D01*
X137000Y53790D01*
X135340D01*
Y62750D01*
X135290Y63001D01*
Y65290D01*
X135290Y65290D01*
X135340Y66250D01*
X135340Y66556D01*
Y81750D01*
X135290Y82001D01*
Y84290D01*
X133000D01*
X132750Y84340D01*
X124340D01*
Y87000D01*
X124143Y87991D01*
X123581Y88832D01*
X122741Y89393D01*
X121750Y89590D01*
D02*
G37*
G36*
X-106460Y38290D02*
X-145540D01*
Y37014D01*
X-146810Y36113D01*
X-148250Y36399D01*
X-150412Y35969D01*
X-152244Y34745D01*
X-153469Y32912D01*
X-153898Y30751D01*
X-153469Y28589D01*
X-152244Y26756D01*
X-150412Y25532D01*
X-148250Y25102D01*
X-146810Y25388D01*
X-145540Y24487D01*
Y23210D01*
X-106460D01*
Y38290D01*
D02*
G37*
G36*
X411540Y48790D02*
X400460D01*
Y36151D01*
X399505Y35313D01*
X399250Y35347D01*
X397543Y35122D01*
X396678Y34764D01*
X396040Y35190D01*
Y35190D01*
X366960D01*
Y22510D01*
X396040D01*
Y22510D01*
X396493Y22813D01*
X397543Y22379D01*
X399250Y22154D01*
X400957Y22379D01*
X402548Y23038D01*
X403914Y24086D01*
X404963Y25452D01*
X405622Y27043D01*
X405846Y28750D01*
X405622Y30457D01*
X405215Y31440D01*
X405960Y32710D01*
X411540D01*
Y48790D01*
D02*
G37*
G36*
X2659750Y30659D02*
X2657393Y30190D01*
X2656660Y29700D01*
X2655540Y30299D01*
Y30540D01*
X2644960D01*
Y24977D01*
X2644865Y24500D01*
X2644960Y24023D01*
Y18960D01*
X2655540D01*
Y18960D01*
X2656446Y19444D01*
X2657393Y18811D01*
X2659750Y18342D01*
X2662107Y18811D01*
X2664105Y20146D01*
X2665440Y22144D01*
X2665909Y24501D01*
X2665440Y26857D01*
X2664105Y28855D01*
X2662107Y30190D01*
X2659750Y30659D01*
D02*
G37*
G36*
X430540Y48790D02*
X419460D01*
Y32710D01*
X419710D01*
Y22460D01*
X419710D01*
X420083Y21763D01*
X419310Y20607D01*
X418842Y18250D01*
X419310Y15894D01*
X420645Y13896D01*
X422643Y12561D01*
X425000Y12092D01*
X427357Y12561D01*
X429355Y13896D01*
X430690Y15894D01*
X431158Y18250D01*
X430690Y20607D01*
X429917Y21763D01*
X430290Y22460D01*
X430290D01*
Y32710D01*
X430540D01*
Y48790D01*
D02*
G37*
G36*
X56500Y89590D02*
X31250D01*
X31000Y89540D01*
X28710D01*
Y87250D01*
X28660Y87000D01*
Y41340D01*
X-7250Y41340D01*
X-7500Y41290D01*
X-9790D01*
Y39000D01*
X-9840Y38750D01*
Y22000D01*
X-9790Y21750D01*
Y19410D01*
X24790D01*
Y19411D01*
X56500D01*
X57491Y19608D01*
X58331Y20169D01*
X58893Y21009D01*
X59090Y22000D01*
Y87000D01*
X58893Y87991D01*
X58790Y88145D01*
Y89540D01*
X56751D01*
X56500Y89590D01*
D02*
G37*
G36*
X-106460Y18290D02*
X-145540D01*
Y17014D01*
X-146810Y16113D01*
X-148250Y16399D01*
X-150412Y15969D01*
X-152244Y14745D01*
X-153469Y12912D01*
X-153898Y10750D01*
X-153469Y8589D01*
X-152244Y6756D01*
X-150412Y5532D01*
X-148250Y5102D01*
X-146810Y5388D01*
X-145540Y4487D01*
Y3210D01*
X-106460D01*
Y18290D01*
D02*
G37*
G36*
X2744000Y78988D02*
X2738018Y78518D01*
X2732184Y77117D01*
X2726640Y74821D01*
X2721524Y71686D01*
X2716962Y67789D01*
X2713065Y63226D01*
X2709930Y58110D01*
X2707634Y52567D01*
X2706233Y46732D01*
X2705762Y40750D01*
X2706233Y34769D01*
X2707634Y28934D01*
X2709930Y23391D01*
X2713065Y18275D01*
X2716962Y13712D01*
X2721524Y9815D01*
X2726640Y6680D01*
X2732184Y4384D01*
X2738018Y2983D01*
X2744000Y2513D01*
X2749982Y2983D01*
X2755816Y4384D01*
X2761360Y6680D01*
X2766476Y9815D01*
X2771038Y13712D01*
X2774935Y18275D01*
X2778070Y23391D01*
X2780367Y28934D01*
X2781767Y34769D01*
X2782238Y40750D01*
X2781767Y46732D01*
X2780367Y52567D01*
X2778070Y58110D01*
X2774935Y63226D01*
X2771038Y67789D01*
X2766476Y71686D01*
X2761360Y74821D01*
X2755816Y77117D01*
X2749982Y78518D01*
X2744000Y78988D01*
D02*
G37*
G36*
X1582750Y16659D02*
X1580393Y16190D01*
X1578395Y14855D01*
X1577061Y12857D01*
X1576592Y10501D01*
X1577061Y8144D01*
X1578395Y6146D01*
X1578411Y6136D01*
Y4866D01*
X1578395Y4855D01*
X1577061Y2857D01*
X1576592Y501D01*
X1577061Y-1856D01*
X1578395Y-3854D01*
X1580393Y-5189D01*
X1582750Y-5658D01*
X1585107Y-5189D01*
X1585940Y-4632D01*
X1587210Y-5289D01*
Y-5289D01*
X1597790D01*
Y4711D01*
Y16291D01*
X1587210D01*
Y16291D01*
X1585940Y15633D01*
X1585107Y16190D01*
X1582750Y16659D01*
D02*
G37*
G36*
X538000D02*
X535643Y16190D01*
X533645Y14855D01*
X532310Y12857D01*
X531842Y10501D01*
X532310Y8144D01*
X533645Y6146D01*
X533661Y6136D01*
Y5222D01*
X533536Y4692D01*
X532310Y2857D01*
X531842Y501D01*
X532310Y-1856D01*
X533645Y-3854D01*
X535643Y-5189D01*
X538000Y-5658D01*
X540190Y-5222D01*
X541460Y-5289D01*
X541460Y-5289D01*
X541460Y-5289D01*
X552040D01*
Y102D01*
X552119Y500D01*
X552040Y899D01*
Y4711D01*
Y16291D01*
X541460D01*
X541460Y16291D01*
X540190Y16223D01*
X538000Y16659D01*
D02*
G37*
G36*
X2632730Y16409D02*
X2630373Y15940D01*
X2628376Y14605D01*
X2627040Y12607D01*
X2626572Y10250D01*
X2627040Y7893D01*
X2628376Y5896D01*
X2628391Y5885D01*
Y4615D01*
X2628376Y4605D01*
X2627040Y2607D01*
X2626572Y250D01*
X2627040Y-2106D01*
X2628376Y-4104D01*
X2630373Y-5439D01*
X2632730Y-5908D01*
X2635087Y-5439D01*
X2635940Y-4869D01*
X2637210Y-5540D01*
Y-5539D01*
X2647790D01*
Y4710D01*
X2647790D01*
Y16291D01*
X2637210D01*
Y16049D01*
X2635940Y15370D01*
X2635087Y15940D01*
X2632730Y16409D01*
D02*
G37*
G36*
X2779489Y9000D02*
X2778011D01*
X2776562Y8712D01*
X2775197Y8147D01*
X2773969Y7326D01*
X2772924Y6281D01*
X2772104Y5053D01*
X2771538Y3688D01*
X2771250Y2239D01*
Y762D01*
X2771538Y-687D01*
X2772104Y-2052D01*
X2772924Y-3280D01*
X2773969Y-4325D01*
X2775197Y-5146D01*
X2776562Y-5711D01*
X2778011Y-6000D01*
X2779489D01*
X2780938Y-5711D01*
X2782303Y-5146D01*
X2783531Y-4325D01*
X2784576Y-3280D01*
X2785396Y-2052D01*
X2785962Y-687D01*
X2786250Y762D01*
Y2239D01*
X2785962Y3688D01*
X2785396Y5053D01*
X2784576Y6281D01*
X2783531Y7326D01*
X2782303Y8147D01*
X2780938Y8712D01*
X2779489Y9000D01*
D02*
G37*
G36*
X739Y7500D02*
X-739D01*
X-2188Y7212D01*
X-3553Y6646D01*
X-4781Y5826D01*
X-5826Y4781D01*
X-6646Y3553D01*
X-7212Y2188D01*
X-7500Y739D01*
Y-739D01*
X-7212Y-2188D01*
X-6646Y-3553D01*
X-5826Y-4781D01*
X-4781Y-5826D01*
X-3553Y-6646D01*
X-2188Y-7212D01*
X-739Y-7500D01*
X739D01*
X2188Y-7212D01*
X3553Y-6646D01*
X4781Y-5826D01*
X5826Y-4781D01*
X6646Y-3553D01*
X7212Y-2188D01*
X7500Y-739D01*
Y739D01*
X7212Y2188D01*
X6646Y3553D01*
X5826Y4781D01*
X4781Y5826D01*
X3553Y6646D01*
X2188Y7212D01*
X739Y7500D01*
D02*
G37*
%LPD*%
G36*
X202535Y46851D02*
X202202Y46713D01*
X200836Y45665D01*
X199787Y44299D01*
X199128Y42708D01*
X198904Y41000D01*
X199128Y39293D01*
X199787Y37702D01*
X200074Y37329D01*
X199629Y36059D01*
D01*
X199443Y35140D01*
X198215Y34790D01*
X197744Y35494D01*
X195912Y36718D01*
X193750Y37148D01*
X191588Y36718D01*
X189756Y35494D01*
X188831Y34109D01*
X188817Y34104D01*
X187433D01*
X187419Y34109D01*
X186494Y35494D01*
X184662Y36718D01*
X182500Y37148D01*
X180338Y36718D01*
X178506Y35494D01*
X177581Y34109D01*
X177567Y34104D01*
X176323D01*
X175547Y35110D01*
X175783Y36464D01*
X175877Y36598D01*
X177164Y37586D01*
X178213Y38952D01*
X178872Y40543D01*
X179096Y42250D01*
X178872Y43958D01*
X178213Y45549D01*
X178104Y45690D01*
X178730Y46961D01*
X187790D01*
X187960Y47461D01*
X199540D01*
Y48121D01*
X202283D01*
X202535Y46851D01*
D02*
G37*
G36*
X162750Y3000D02*
X162750Y-10250D01*
X138500Y-10250D01*
X138500Y5000D01*
X151750Y5000D01*
X151750Y9662D01*
Y31750D01*
X162750D01*
X162750Y3000D01*
D02*
G37*
G36*
X517115Y31814D02*
Y19860D01*
X511809Y14554D01*
X461549D01*
X461476Y14663D01*
X459643Y15888D01*
X458122Y16190D01*
X458247Y17460D01*
X466040D01*
Y17460D01*
X467310Y18117D01*
X468143Y17561D01*
X470500Y17092D01*
X472857Y17561D01*
X474855Y18896D01*
X475486Y19841D01*
X477014D01*
X477645Y18896D01*
X479643Y17561D01*
X482000Y17092D01*
X484357Y17561D01*
X485190Y18118D01*
X486460Y17460D01*
Y17460D01*
X497040D01*
Y28751D01*
X497040Y28751D01*
X497040Y28751D01*
X498219Y29207D01*
X498240Y29210D01*
X511540D01*
Y30116D01*
X512012D01*
X513499Y30411D01*
X514759Y31253D01*
X515845Y32340D01*
X517115Y31814D01*
D02*
G37*
G36*
X22250Y69750D02*
X-15500D01*
X-27750Y82001D01*
X-89250Y82001D01*
X-105500Y65750D01*
X-143000Y65750D01*
Y77501D01*
X-137000Y83501D01*
X-127750Y92751D01*
X22250D01*
Y69750D01*
D02*
G37*
G36*
X170750Y75750D02*
X149750D01*
Y81750D01*
X152500D01*
Y93750D01*
X170750D01*
Y75750D01*
D02*
G37*
G36*
X121750Y81750D02*
X132750D01*
Y66250D01*
X121750D01*
Y73500D01*
X71250D01*
Y87000D01*
X121750D01*
Y81750D01*
D02*
G37*
G36*
X160750Y44750D02*
X137250Y44750D01*
Y51250D01*
X149750Y51250D01*
Y62750D01*
X160750Y62750D01*
X160750Y44750D01*
D02*
G37*
G36*
X132750Y17250D02*
X121750D01*
Y36764D01*
X103000D01*
Y49335D01*
X121750D01*
Y62750D01*
X132750D01*
Y17250D01*
D02*
G37*
G36*
X56500Y22000D02*
X-7250Y22000D01*
Y38750D01*
X31250Y38750D01*
Y87000D01*
X56500D01*
Y22000D01*
D02*
G37*
D11*
X1727625Y40625D02*
X1771500Y-3250D01*
X1846500D02*
X1890375Y40625D01*
X1771500Y-3250D02*
X1846500D01*
X1724000Y32750D02*
X1765000Y-8249D01*
X1854250D02*
X1895250Y32750D01*
X1765000Y-8249D02*
X1854250D01*
X805000Y40750D02*
X849750Y-3999D01*
X906000D02*
X950750Y40750D01*
X849750Y-3999D02*
X906000D01*
X805000Y32750D02*
X847000Y-9250D01*
X908000D02*
X950000Y32750D01*
X847000Y-9250D02*
X908000D01*
X-126000Y70750D02*
X-126000Y70750D01*
X-126000Y30751D02*
X-126000Y30750D01*
X-148250Y30751D02*
X-126000D01*
X-126001Y10750D02*
X-126000Y10750D01*
X-148250Y10750D02*
X-126001D01*
X503750Y92500D02*
X503750Y92500D01*
X515500D02*
X515500Y92500D01*
X950750Y40750D02*
X1566500Y40750D01*
X524000Y40750D02*
X805000D01*
X528250Y32750D02*
X805000D01*
X457481Y10669D02*
X513419D01*
X447982D02*
X457481D01*
X224750Y68750D02*
X224750Y68750D01*
X205500Y68750D02*
X205500Y68750D01*
X2659659Y56510D02*
X2664009D01*
X447981Y-581D02*
X458580D01*
X1895250Y32750D02*
X2622730Y32750D01*
X1574000D02*
X1724000Y32750D01*
X1890375Y40625D02*
X2618605D01*
X1566625D02*
X1727625D01*
X950000Y32750D02*
X1574000D01*
Y32750D02*
X1574000Y32750D01*
X2622730D02*
X2622980Y32500D01*
X2648750Y24500D02*
X2650250D01*
X1566500Y40750D02*
X1566625Y40625D01*
X2618605D02*
X2618730Y40500D01*
X513250Y78935D02*
X518146Y83830D01*
X2655420D01*
X528250Y18001D02*
Y32750D01*
X525396Y78751D02*
X1608088D01*
X518330Y71685D02*
X525396Y78751D01*
X2655420Y83830D02*
X2667875Y71375D01*
X1608088Y78751D02*
X1617060Y69778D01*
X558747Y73329D02*
X562156Y69921D01*
X533182Y73170D02*
X533340Y73329D01*
X558747D01*
X528488Y73170D02*
X533182D01*
X523750Y68433D02*
X528488Y73170D01*
X562156Y69921D02*
X568580D01*
X518330Y65132D02*
Y71685D01*
X568580Y69921D02*
X570750Y67751D01*
X523750Y63066D02*
Y68433D01*
X511762Y66940D02*
X513250Y68428D01*
X504190Y66940D02*
X511762D01*
X513250Y68428D02*
Y78935D01*
X569137Y56388D02*
X570750Y58000D01*
Y67751D01*
X1613079Y56769D02*
X1617060Y60750D01*
X1609741Y66760D02*
X1609750Y66750D01*
X564537Y55726D02*
X565199Y56388D01*
X1609837Y56769D02*
X1613079D01*
X1617060Y60750D02*
Y69778D01*
X565199Y56388D02*
X569137D01*
X1598919Y56769D02*
X1609837D01*
X513500Y60302D02*
X518330Y65132D01*
X513500Y55318D02*
Y60302D01*
X2667875Y60375D02*
Y71375D01*
X2664009Y56510D02*
X2667875Y60375D01*
X2659659Y56510D02*
X2659669Y56519D01*
X2648509Y56510D02*
X2659659D01*
X2632659D02*
X2632669Y56519D01*
X2621509Y56510D02*
X2632659D01*
X2621500Y56501D02*
X2621509Y56510D01*
X2648500Y56501D02*
X2648509Y56510D01*
X1582650Y56750D02*
X1582669Y56769D01*
X1571500Y56750D02*
X1582650D01*
X2642500Y250D02*
X2642500Y251D01*
X2632730Y250D02*
X2632730Y250D01*
X2642375Y10375D02*
X2642500Y10501D01*
X2632730Y10250D02*
X2632855Y10375D01*
X2648750Y24500D02*
X2648750Y24500D01*
X2659750Y24501D02*
X2659750Y24501D01*
X1598919Y56769D02*
X1598919Y56769D01*
X2632669Y66519D02*
X2632678Y66510D01*
X1592500Y501D02*
X1592500Y501D01*
X1582750Y501D02*
X1582750Y501D01*
X1592500Y10501D02*
X1592500Y10501D01*
X1582750Y10501D02*
X1582750Y10501D01*
X1599000Y24750D02*
X1599000Y24750D01*
X1610000D02*
X1610000Y24750D01*
X1582669Y66769D02*
X1582678Y66760D01*
X513419Y10669D02*
X521000Y18250D01*
Y37533D01*
X538169Y66769D02*
X538178Y66760D01*
X503750Y53500D02*
X511682D01*
X513500Y55318D01*
X514034Y47466D02*
X518659Y52091D01*
X514034Y36022D02*
Y47466D01*
X518659Y52091D02*
Y57975D01*
X523750Y63066D01*
X527250Y56750D02*
X527259Y56760D01*
X538159D01*
X503750Y34000D02*
X512012D01*
X514034Y36022D01*
X503750Y66500D02*
X504190Y66940D01*
X553919Y66769D02*
X553959Y66810D01*
X503750Y34000D02*
X503750Y34000D01*
X524000Y40533D02*
Y40750D01*
X521000Y37533D02*
X524000Y40533D01*
X538159Y56760D02*
X538169Y56769D01*
X553919D02*
X553928Y56760D01*
X564491D01*
X564500Y56750D01*
X546750Y10501D02*
X546750Y10501D01*
X538000Y10501D02*
X538000Y10501D01*
X515838Y5589D02*
X528250Y18001D01*
X464750Y5589D02*
X515838D01*
X458580Y-581D02*
X464750Y5589D01*
X565250Y24750D02*
X565250Y24750D01*
X224750Y52750D02*
X224750Y52750D01*
X182500Y52751D02*
X182500Y52750D01*
X205419Y30769D02*
X205459Y30810D01*
Y40960D02*
X205500Y41000D01*
X224741Y20760D02*
X224750Y20750D01*
X205428Y20760D02*
X224741D01*
X205419Y20769D02*
X205428Y20760D01*
X435718Y76000D02*
X438718Y73000D01*
X435500Y76000D02*
X435718D01*
X438718Y73000D02*
X448250D01*
X256500Y-3000D02*
Y12000D01*
X256500Y12000D01*
X312250Y36750D02*
X323250D01*
X291566D02*
X312250D01*
X240750Y26500D02*
Y35001D01*
X286250Y52751D02*
X294250Y44750D01*
X312250D01*
X276000Y52316D02*
X291566Y36750D01*
X276000Y52316D02*
Y52751D01*
X289750Y28750D02*
X312250D01*
X265750Y52751D02*
X289750Y28750D01*
X256500Y84500D02*
X256500Y84500D01*
Y63001D02*
X256500Y63000D01*
X256500Y63001D02*
Y84500D01*
X224750Y20750D02*
X224823Y20823D01*
X235072D02*
X240750Y26500D01*
X224823Y20823D02*
X235072D01*
X280783Y-2717D02*
Y18717D01*
X280500Y-3000D02*
X280783Y-2717D01*
X280750Y18750D02*
X280783Y18717D01*
X193669Y22519D02*
X193709Y22559D01*
Y31459D01*
X193750Y31500D01*
X182419Y22519D02*
X182459Y22559D01*
Y31459D01*
X182500Y31500D01*
X171169Y22519D02*
X171209Y22559D01*
Y31459D01*
X171250Y31500D01*
X193500Y-8750D02*
X193500Y-8750D01*
X169000Y5831D02*
X171169Y8000D01*
X169000Y-7262D02*
X170488Y-8750D01*
X178500D01*
X169000Y-7262D02*
Y5831D01*
X171169Y8000D02*
Y12519D01*
X182419Y12519D02*
X182500Y12437D01*
Y8250D02*
Y12437D01*
X178500Y4250D02*
X182500Y8250D01*
X178500Y-250D02*
Y4250D01*
Y-250D02*
X178500Y-250D01*
X193500Y-250D02*
X193669Y-81D01*
Y12519D01*
X312250Y44750D02*
X312250Y44750D01*
X312250Y52750D02*
X312250Y52751D01*
X296500Y52750D02*
X312250D01*
X296500Y52750D02*
X296500Y52750D01*
X264500Y-3000D02*
Y18750D01*
X264500Y18750D01*
X272500Y-3000D02*
Y12000D01*
X272500Y12000D01*
X288500Y-3000D02*
Y11940D01*
X288500Y11940D02*
X288500Y11940D01*
Y-3000D02*
X288500Y-3000D01*
X312770Y7980D02*
Y12750D01*
X224750Y12750D02*
X224750Y12750D01*
Y3000D02*
Y12750D01*
X437500Y60000D02*
X448250D01*
X437500Y43750D02*
X440310Y46560D01*
X447810D02*
X448250Y47000D01*
X440310Y46560D02*
X447810D01*
X437500Y43750D02*
X438436D01*
X256500Y-3000D02*
X256500Y-3000D01*
X264500Y-3000D02*
X264500Y-3000D01*
X272500Y-3000D02*
X272500Y-3000D01*
X296500Y-3000D02*
X296750Y-3250D01*
X306750D01*
X448250Y53500D02*
X459000D01*
X448250Y66500D02*
X459000D01*
X437500Y34000D02*
X448250D01*
X264500Y84500D02*
X264500Y84500D01*
Y68750D02*
Y84500D01*
Y68750D02*
X264500Y68750D01*
X248500Y84500D02*
X248500Y84500D01*
Y68750D02*
Y84500D01*
Y68750D02*
X248500Y68750D01*
X503750Y47000D02*
X503750Y47000D01*
X490250Y47000D02*
X503750D01*
X490250Y47000D02*
X490250Y47000D01*
X503750Y60000D02*
X503750Y60000D01*
X490250Y60000D02*
X503750D01*
X490250Y60000D02*
X490250Y60000D01*
X503750Y73000D02*
X503750Y73000D01*
X490250Y73000D02*
X503750D01*
X490250Y73000D02*
X490250Y73000D01*
X428000Y-11750D02*
X428250D01*
X427250D02*
X428000D01*
X482000Y23250D02*
X491750D01*
X482000Y23250D02*
X482000Y23250D01*
X491750D02*
X491750Y23250D01*
X460750Y23250D02*
X460750Y23250D01*
X406000Y58738D02*
Y68750D01*
Y58738D02*
X407488Y57250D01*
X425000Y58738D02*
Y68750D01*
X423512Y57250D02*
X425000Y58738D01*
X407488Y57250D02*
X423512D01*
X352519Y91832D02*
X352603Y91916D01*
X362416D02*
X362500Y92000D01*
X538000Y501D02*
X538000Y500D01*
X1592500Y501D02*
X1592500Y501D01*
Y501D02*
Y501D01*
X425000Y40750D02*
X425000Y40750D01*
Y28250D02*
X425000Y28250D01*
X425000Y28250D01*
X425000Y68750D02*
X425125Y68875D01*
X178000Y90500D02*
X178000Y90500D01*
X178000Y67750D02*
X178000Y67750D01*
X224750Y68750D02*
X224750Y68750D01*
X205500Y68750D02*
X205500Y68751D01*
X83750Y78500D02*
X84000Y78750D01*
X43250Y49250D02*
X43500Y49000D01*
X381500Y28850D02*
X381550Y28800D01*
X342519Y91832D02*
X342519Y91832D01*
X333019Y91832D02*
X342519D01*
X333019Y91831D02*
X333019Y91832D01*
X342519Y79669D02*
Y92582D01*
X342500Y79650D02*
X342519Y79669D01*
X240500Y84500D02*
X240500Y84500D01*
X231000Y84500D02*
X240500D01*
X447981Y10669D02*
X447982Y10669D01*
X437981Y10669D02*
X437991Y10660D01*
Y-11740D02*
X438000Y-11750D01*
X351000Y-10750D02*
X351000Y-10750D01*
X351000Y12500D02*
X351000Y12500D01*
X377500Y-3250D02*
X379250Y-5000D01*
X384000D01*
X377500Y3250D02*
X379250Y5000D01*
X384000D01*
X409250D02*
X411000Y3250D01*
X404750Y5000D02*
X409250D01*
X411000Y3250D02*
X416500D01*
X416500Y3250D01*
X404750Y-5000D02*
X409250D01*
X411000Y-3250D01*
X416500D01*
X416500Y-9750D02*
X416500Y-9750D01*
X372000D02*
X372000Y-9750D01*
X351000Y-10750D02*
X351000Y-10750D01*
X372000Y-3250D02*
X377500D01*
X372000Y3250D02*
X377500D01*
X372000Y-3250D02*
X372000Y-3250D01*
X331519Y831D02*
X341019D01*
X331500Y12500D02*
X341000D01*
X312250Y12750D02*
X312770D01*
X314250Y11270D01*
X319919Y831D02*
X331519D01*
X312770Y7980D02*
X319919Y831D01*
X312250Y20750D02*
X323250D01*
X331500Y12500D01*
X312250Y12750D02*
X312250Y12750D01*
X323250Y36750D02*
X328000Y41500D01*
X342450D02*
X342500Y41550D01*
X328000Y41500D02*
X342450D01*
X342450Y28800D02*
X342500Y28850D01*
X312300Y28800D02*
X342450D01*
X312250Y28750D02*
X312300Y28800D01*
D16*
X-126000Y10750D02*
D03*
Y30750D02*
D03*
Y70750D02*
D03*
Y50750D02*
D03*
D17*
X-201000Y-13250D02*
D03*
Y94750D02*
D03*
D18*
X205419Y20769D02*
D03*
Y30769D02*
D03*
X553919Y56769D02*
D03*
X553919Y66769D02*
D03*
X538169D02*
D03*
X538169Y56769D02*
D03*
X1598919Y66769D02*
D03*
X1598919Y56769D02*
D03*
X1582669Y66769D02*
D03*
Y56769D02*
D03*
X2648500Y66501D02*
D03*
Y56501D02*
D03*
X2632669Y66519D02*
D03*
Y56519D02*
D03*
X171169Y12519D02*
D03*
Y22519D02*
D03*
X193669Y12519D02*
D03*
X193669Y22519D02*
D03*
X182419Y12519D02*
D03*
Y22519D02*
D03*
X193750Y52751D02*
D03*
X193750Y42751D02*
D03*
X205500Y68750D02*
D03*
X205500Y78751D02*
D03*
D19*
X447981Y-581D02*
D03*
X437981Y-581D02*
D03*
X447981Y10669D02*
D03*
X437981Y10669D02*
D03*
X450750Y23250D02*
D03*
X460750Y23250D02*
D03*
X501750Y23250D02*
D03*
X491750Y23250D02*
D03*
X448000Y-11750D02*
D03*
X438000Y-11750D02*
D03*
X341000Y-10750D02*
D03*
X351000Y-10750D02*
D03*
X341000Y12500D02*
D03*
X351000D02*
D03*
X341019Y831D02*
D03*
X351019D02*
D03*
X555750Y24750D02*
D03*
X545750Y24750D02*
D03*
X546750Y501D02*
D03*
X556750Y501D02*
D03*
X546750Y10501D02*
D03*
X556750Y10501D02*
D03*
X2642500Y251D02*
D03*
X2652500Y250D02*
D03*
X2642500Y10501D02*
D03*
X2652500Y10501D02*
D03*
X2650250Y24750D02*
D03*
X2640250Y24750D02*
D03*
X1592500Y501D02*
D03*
X1602500Y501D02*
D03*
X1592500Y10501D02*
D03*
X1602500Y10501D02*
D03*
X1600250Y24750D02*
D03*
X1590250Y24750D02*
D03*
X425000Y28250D02*
D03*
X415000Y28250D02*
D03*
X425000Y81500D02*
D03*
X415000Y81500D02*
D03*
X342519Y91832D02*
D03*
X352519Y91832D02*
D03*
X182500Y52751D02*
D03*
X172500Y52751D02*
D03*
X155231Y90419D02*
D03*
X145231Y90419D02*
D03*
X168000Y90500D02*
D03*
X178000Y90500D02*
D03*
X177981Y79169D02*
D03*
X167981Y79169D02*
D03*
X130000Y48000D02*
D03*
X140000D02*
D03*
D20*
X7500Y78150D02*
D03*
Y30350D02*
D03*
D21*
X193500Y-8750D02*
D03*
X193500Y-250D02*
D03*
X178500Y-8750D02*
D03*
X178500Y-250D02*
D03*
D22*
X406000Y40750D02*
D03*
X425000Y40750D02*
D03*
X406000Y68750D02*
D03*
X415500Y68750D02*
D03*
X425000Y68750D02*
D03*
D23*
X372000Y9750D02*
D03*
Y3250D02*
D03*
X372000Y-3250D02*
D03*
X372000Y-9750D02*
D03*
X416500Y9750D02*
D03*
X416500Y3250D02*
D03*
X416500Y-3250D02*
D03*
X416500Y-9750D02*
D03*
D24*
X503750Y34000D02*
D03*
X503750Y40500D02*
D03*
Y47000D02*
D03*
X503750Y53500D02*
D03*
X503750Y60000D02*
D03*
X503750Y66500D02*
D03*
X503750Y73000D02*
D03*
X503750Y79500D02*
D03*
X503750Y86000D02*
D03*
X503750Y92500D02*
D03*
X448250Y34000D02*
D03*
X448250Y40500D02*
D03*
X448250Y47000D02*
D03*
X448250Y53500D02*
D03*
X448250Y60000D02*
D03*
Y66500D02*
D03*
X448250Y73000D02*
D03*
X448250Y79500D02*
D03*
X448250Y86000D02*
D03*
X448250Y92500D02*
D03*
D25*
X342500Y79650D02*
D03*
Y66950D02*
D03*
X342500Y54250D02*
D03*
X342500Y41550D02*
D03*
X342500Y28850D02*
D03*
X381500Y79650D02*
D03*
X381500Y66950D02*
D03*
X381500Y54250D02*
D03*
X381500Y41550D02*
D03*
Y28850D02*
D03*
D26*
X143439Y-3044D02*
D03*
X127439Y-3045D02*
D03*
D27*
X127250Y24500D02*
D03*
X157250Y24500D02*
D03*
D28*
X108750Y43750D02*
D03*
X108750Y12250D02*
D03*
D29*
X155250Y59750D02*
D03*
X155250Y69250D02*
D03*
X155250Y78750D02*
D03*
X127250Y59750D02*
D03*
X127250Y69250D02*
D03*
Y78750D02*
D03*
D30*
X108545Y78440D02*
D03*
X108545Y62439D02*
D03*
D31*
X83750Y78500D02*
D03*
X43750D02*
D03*
X43750Y48750D02*
D03*
X83750D02*
D03*
D32*
X224750Y12750D02*
D03*
X224750Y20750D02*
D03*
X224750Y28750D02*
D03*
X224750Y36750D02*
D03*
X224750Y44750D02*
D03*
X224750Y52750D02*
D03*
X224750Y60750D02*
D03*
X224750Y68750D02*
D03*
X312250Y68750D02*
D03*
X312250Y60750D02*
D03*
X312250Y52751D02*
D03*
X312250Y44750D02*
D03*
X312250Y36750D02*
D03*
X312250Y28750D02*
D03*
X312250Y20750D02*
D03*
X312250Y12750D02*
D03*
D33*
X240500Y84500D02*
D03*
X248500Y84500D02*
D03*
X256500Y84500D02*
D03*
X264500Y84500D02*
D03*
X272500Y84500D02*
D03*
X280500Y84500D02*
D03*
X288500Y84500D02*
D03*
X296500D02*
D03*
X296500Y-3000D02*
D03*
X288500Y-3000D02*
D03*
X280500Y-3000D02*
D03*
X272500Y-3000D02*
D03*
X264500D02*
D03*
X256500Y-3000D02*
D03*
X248500Y-3000D02*
D03*
X240500Y-3000D02*
D03*
D54*
X0Y0D02*
D03*
X2778750Y1500D02*
D03*
Y80251D02*
D03*
D55*
X-148250Y70750D02*
X-126000D01*
D56*
X503750Y92500D02*
X515500D01*
X205500Y68750D02*
X224750D01*
X2632678Y66510D02*
X2648500D01*
X1582678Y66760D02*
X1609741D01*
X1600250Y24750D02*
X1610000D01*
X1599000D02*
X1600250D01*
X538178Y66760D02*
X538187Y66769D01*
X428000Y-11750D02*
X438000D01*
X437991Y-11740D02*
Y10660D01*
X2650250Y24500D02*
X2650250Y24501D01*
X2659750D01*
X553919Y66769D02*
X554535D01*
X538187D02*
X553919D01*
X555750Y24750D02*
X555750Y24750D01*
X565250D01*
X554535Y66769D02*
X555745Y65559D01*
X2648500Y66510D02*
X2648598Y66608D01*
X2659429D01*
X2659536Y66715D01*
X2632730Y250D02*
X2642500D01*
X2632855Y10375D02*
X2642375D01*
X1582750Y501D02*
X1592500D01*
X1582750Y10501D02*
X1592500D01*
X546750Y500D02*
X548000D01*
X538000Y500D02*
X546750Y500D01*
Y501D02*
Y10501D01*
X538000Y10501D02*
X546750D01*
X425125Y68875D02*
Y91125D01*
X178000Y67750D02*
Y90500D01*
X193500Y-8750D02*
X207750D01*
X363500Y9750D02*
X372000D01*
X360500Y6750D02*
X363500Y9750D01*
X360500Y-10750D02*
Y6750D01*
X399200Y28800D02*
X399250Y28750D01*
X381550Y28800D02*
X399200D01*
X427250Y-11750D02*
X427250D01*
X424000D02*
X427250D01*
X422900Y-10650D02*
X424000Y-11750D01*
X428000Y-11750D02*
X428000Y-11750D01*
X427250Y-11750D02*
X428000D01*
X427718Y-11468D02*
X428000Y-11750D01*
X416500Y-9750D02*
X417400Y-10650D01*
X422900D01*
X426664Y-11163D02*
X427250Y-11750D01*
X351000Y-10750D02*
Y12500D01*
X365500Y-9750D02*
X372000D01*
X364500Y-10750D02*
X365500Y-9750D01*
X360500Y-10750D02*
X364500D01*
X360500Y-10750D02*
X360500Y-10750D01*
X351000Y-10750D02*
X360500D01*
X470500Y23250D02*
X470500Y23250D01*
X460750Y23250D02*
X470500D01*
X495000Y40500D02*
X503750D01*
X491750Y37250D02*
X495000Y40500D01*
X491750Y23250D02*
Y37250D01*
X460750Y23250D02*
Y37750D01*
X458000Y40500D02*
X460750Y37750D01*
X448250Y40500D02*
X458000D01*
X352603Y91916D02*
X362416D01*
X425125Y91125D02*
X425250Y91250D01*
X425000Y18250D02*
X425000Y18250D01*
X425000Y18250D02*
Y28250D01*
X425000Y28250D02*
Y40750D01*
D57*
X182500Y52750D02*
X224750D01*
X205459Y30810D02*
Y40960D01*
X172500Y42251D02*
Y52751D01*
X108545Y78750D02*
X127250D01*
X83500D02*
X108545D01*
X43250Y49250D02*
Y78500D01*
D58*
X2744000Y40750D02*
D03*
X1810670D02*
D03*
X877330D02*
D03*
X-56000D02*
D03*
D59*
X-193250Y78500D02*
D03*
Y53250D02*
D03*
Y27750D02*
D03*
Y2501D02*
D03*
X63000Y63250D02*
D03*
X73250D02*
D03*
X83500D02*
D03*
X-218750Y78500D02*
D03*
Y53250D02*
D03*
Y27750D02*
D03*
Y2501D02*
D03*
X2796750Y78500D02*
D03*
X-152750Y57501D02*
D03*
X-157250Y50750D02*
D03*
X-148500D02*
D03*
X-148250Y10750D02*
D03*
Y30751D02*
D03*
X-103000Y50750D02*
D03*
X-148250Y70750D02*
D03*
X565000Y10750D02*
D03*
Y750D02*
D03*
X205500Y87001D02*
D03*
X178002Y-19250D02*
D03*
X152602D02*
D03*
X127202D02*
D03*
X101802D02*
D03*
X-177597D02*
D03*
X-152197D02*
D03*
X-166749Y100751D02*
D03*
X-141349D02*
D03*
X-115949D02*
D03*
X-90549D02*
D03*
X-65149D02*
D03*
X-39749D02*
D03*
X-14349D02*
D03*
X11051D02*
D03*
X76403Y-19250D02*
D03*
X203403D02*
D03*
X228802D02*
D03*
X254202D02*
D03*
X279602D02*
D03*
X305002D02*
D03*
X330402D02*
D03*
X381202D02*
D03*
X406602D02*
D03*
X457402D02*
D03*
X36451Y100751D02*
D03*
X61851D02*
D03*
X87251D02*
D03*
X112651D02*
D03*
X138051D02*
D03*
X163451D02*
D03*
X188850D02*
D03*
X214251D02*
D03*
X239650D02*
D03*
X265050D02*
D03*
X290450D02*
D03*
X381202D02*
D03*
X406602D02*
D03*
X432002D02*
D03*
X457402D02*
D03*
X482802D02*
D03*
X508202D02*
D03*
X252500Y45750D02*
D03*
X141250Y79500D02*
D03*
Y59000D02*
D03*
Y69250D02*
D03*
X63000Y51501D02*
D03*
Y41251D02*
D03*
Y31000D02*
D03*
X93750Y63250D02*
D03*
X476250Y37750D02*
D03*
Y68750D02*
D03*
X584402Y12901D02*
D03*
X609801Y13401D02*
D03*
X635201Y13401D02*
D03*
X660601Y13401D02*
D03*
X686001Y13401D02*
D03*
X711401Y13401D02*
D03*
X736801Y13401D02*
D03*
X762201Y13401D02*
D03*
X787601Y13401D02*
D03*
X965401Y13401D02*
D03*
X990801Y13400D02*
D03*
X1016201Y13400D02*
D03*
X1041601Y13400D02*
D03*
X1067001Y13400D02*
D03*
X1092401Y13400D02*
D03*
X1117800Y13400D02*
D03*
X1143200Y13400D02*
D03*
X1168600Y13400D02*
D03*
X1194000Y13400D02*
D03*
X1219400Y13400D02*
D03*
X1244800Y13400D02*
D03*
X1270200Y13400D02*
D03*
X1295600Y13400D02*
D03*
X1321000Y13400D02*
D03*
X1346400D02*
D03*
X1371800D02*
D03*
X1397200D02*
D03*
X1422600D02*
D03*
X1448000D02*
D03*
X1473400D02*
D03*
X1498800D02*
D03*
X1524200D02*
D03*
X1549600D02*
D03*
X1625800D02*
D03*
X1651200D02*
D03*
X1676600D02*
D03*
X1702000D02*
D03*
X1727400D02*
D03*
X1905200D02*
D03*
X1930600D02*
D03*
X1956000D02*
D03*
X1981400D02*
D03*
X2006800D02*
D03*
X2032200D02*
D03*
X2057600D02*
D03*
X2083000D02*
D03*
X2108400D02*
D03*
X2133800D02*
D03*
X2159200D02*
D03*
X2184600D02*
D03*
X2210000D02*
D03*
X2235400D02*
D03*
X2260800D02*
D03*
X2286200D02*
D03*
X2311600D02*
D03*
X2335000Y14401D02*
D03*
X2362400Y13400D02*
D03*
X2387800D02*
D03*
X2413200D02*
D03*
X2438600D02*
D03*
X2464000D02*
D03*
X2489400D02*
D03*
X2514800D02*
D03*
X2540200D02*
D03*
X2565600D02*
D03*
X2591000D02*
D03*
X2616400D02*
D03*
X609801Y68099D02*
D03*
X635201Y68100D02*
D03*
X660601Y68100D02*
D03*
X686001Y68100D02*
D03*
X711401Y68100D02*
D03*
X736801Y68100D02*
D03*
X762201Y68100D02*
D03*
X787601Y68100D02*
D03*
X813001Y68100D02*
D03*
X940001Y68100D02*
D03*
X2692597Y68102D02*
D03*
X2590998Y68102D02*
D03*
X2565598Y68102D02*
D03*
X2540198Y68102D02*
D03*
X2514798Y68101D02*
D03*
X2489398Y68101D02*
D03*
X2463998Y68101D02*
D03*
X2438598Y68101D02*
D03*
X2413198Y68101D02*
D03*
X2387798Y68101D02*
D03*
X2362398Y68101D02*
D03*
X2336998Y68101D02*
D03*
X2311598Y68101D02*
D03*
X2286198Y68101D02*
D03*
X2260798Y68101D02*
D03*
X2235398Y68101D02*
D03*
X2209998Y68101D02*
D03*
X2184598Y68101D02*
D03*
X2159198Y68101D02*
D03*
X2133798Y68101D02*
D03*
X2108398Y68101D02*
D03*
X2082999Y68101D02*
D03*
X2057599Y68101D02*
D03*
X2032199Y68101D02*
D03*
X2006799Y68101D02*
D03*
X1981399Y68101D02*
D03*
X1955999Y68101D02*
D03*
X1930599Y68101D02*
D03*
X1905199Y68101D02*
D03*
X1879799Y68101D02*
D03*
X1854399Y68101D02*
D03*
X1752799Y68101D02*
D03*
X1727399Y68101D02*
D03*
X1701999Y68101D02*
D03*
X1676599Y68101D02*
D03*
X1651199Y68101D02*
D03*
X1524200Y68100D02*
D03*
X1498800Y68100D02*
D03*
X1473400Y68100D02*
D03*
X1448000Y68100D02*
D03*
X1422600Y68100D02*
D03*
X1397200Y68100D02*
D03*
X1371800Y68100D02*
D03*
X1346400Y68100D02*
D03*
X1321000Y68100D02*
D03*
X1295600Y68100D02*
D03*
X1270200Y68100D02*
D03*
X1244800Y68100D02*
D03*
X1219400Y68100D02*
D03*
X1194000Y68100D02*
D03*
X1168600Y68100D02*
D03*
X1143200Y68100D02*
D03*
X1117800Y68100D02*
D03*
X1092401Y68100D02*
D03*
X1067001Y68100D02*
D03*
X1041601Y68100D02*
D03*
X1016201Y68100D02*
D03*
X990801Y68100D02*
D03*
X965401Y68100D02*
D03*
X405650Y83973D02*
D03*
X2796750Y53250D02*
D03*
Y27750D02*
D03*
Y2501D02*
D03*
X2794200Y-19250D02*
D03*
X2794197Y100751D02*
D03*
X2718000Y-19250D02*
D03*
X2743400D02*
D03*
X2768800D02*
D03*
X2641800D02*
D03*
X2667200D02*
D03*
X2692600D02*
D03*
X2717997Y100751D02*
D03*
X2743397D02*
D03*
X2768797D02*
D03*
X2641797D02*
D03*
X2667197D02*
D03*
X2692597D02*
D03*
X457481Y10669D02*
D03*
X457481Y-581D02*
D03*
X-126797Y-19250D02*
D03*
X-101397D02*
D03*
X-75997D02*
D03*
X-50597D02*
D03*
X-25197D02*
D03*
X1611750Y10501D02*
D03*
Y501D02*
D03*
X2413198Y100751D02*
D03*
X1566500Y40750D02*
D03*
X528250Y32750D02*
D03*
X2622980Y32500D02*
D03*
X2618730Y40500D02*
D03*
X533602Y100751D02*
D03*
X559002D02*
D03*
X736801D02*
D03*
X711401D02*
D03*
X686001D02*
D03*
X660601D02*
D03*
X635201D02*
D03*
X609801D02*
D03*
X584402D02*
D03*
X914601D02*
D03*
X889201D02*
D03*
X863801D02*
D03*
X838401D02*
D03*
X813001D02*
D03*
X787601D02*
D03*
X762201D02*
D03*
X940001D02*
D03*
X965401D02*
D03*
X990801D02*
D03*
X1016201D02*
D03*
X1041601D02*
D03*
X1067001D02*
D03*
X1092401D02*
D03*
X1117800D02*
D03*
X1143200D02*
D03*
X1168600D02*
D03*
X1194000D02*
D03*
X1219400D02*
D03*
X1244800D02*
D03*
X1270200D02*
D03*
X1295600D02*
D03*
X1321000D02*
D03*
X1346400D02*
D03*
X1371800D02*
D03*
X1397200D02*
D03*
X1422600D02*
D03*
X1448000D02*
D03*
X1473400D02*
D03*
X1498800D02*
D03*
X1524200D02*
D03*
X1549599D02*
D03*
X1575000D02*
D03*
X1600399D02*
D03*
X1609837Y56769D02*
D03*
X564537Y55726D02*
D03*
X2661750Y250D02*
D03*
Y10501D02*
D03*
X2659669Y56519D02*
D03*
X2621500Y56501D02*
D03*
X1571500Y56750D02*
D03*
X527250D02*
D03*
X524000Y40750D02*
D03*
X511500Y23250D02*
D03*
X362000Y28751D02*
D03*
X435500Y76000D02*
D03*
X256500Y12000D02*
D03*
X240750Y35001D02*
D03*
X256500Y63000D02*
D03*
X265750Y52751D02*
D03*
X276000Y52751D02*
D03*
X286250Y52751D02*
D03*
X280750Y18750D02*
D03*
X-152750Y44001D02*
D03*
X-4750Y51750D02*
D03*
X20750D02*
D03*
X171250Y31500D02*
D03*
X193750D02*
D03*
X182500D02*
D03*
X264500Y18750D02*
D03*
X272500Y12000D02*
D03*
X288500Y11940D02*
D03*
X296500Y52750D02*
D03*
X315850Y100751D02*
D03*
X93750Y250D02*
D03*
X104000D02*
D03*
X114250D02*
D03*
X203Y-19250D02*
D03*
X25603D02*
D03*
X51002D02*
D03*
X390702Y-11999D02*
D03*
X1625799Y100751D02*
D03*
X1651199D02*
D03*
X1676599D02*
D03*
X1727399D02*
D03*
X1701999D02*
D03*
X1752799D02*
D03*
X1879799D02*
D03*
X2032199D02*
D03*
X1854399D02*
D03*
X1803599D02*
D03*
X2336998D02*
D03*
X2235398D02*
D03*
X1930599D02*
D03*
X2463998D02*
D03*
X2209998D02*
D03*
X1828999D02*
D03*
X2057599D02*
D03*
X1905199D02*
D03*
X1955999D02*
D03*
X2184598D02*
D03*
X1981399D02*
D03*
X2082999D02*
D03*
X2286198D02*
D03*
X2260798D02*
D03*
X2362398D02*
D03*
X2438598D02*
D03*
X2387798D02*
D03*
X2006799D02*
D03*
X1778199D02*
D03*
X2108398D02*
D03*
X2133798D02*
D03*
X2159198D02*
D03*
X2311598D02*
D03*
X2616397D02*
D03*
X2590998D02*
D03*
X2565598D02*
D03*
X2540198D02*
D03*
X2514798D02*
D03*
X2489398D02*
D03*
X482802Y-19250D02*
D03*
X508202D02*
D03*
X533602D02*
D03*
X559002D02*
D03*
X584402D02*
D03*
X609801D02*
D03*
X635201D02*
D03*
X660601D02*
D03*
X686001D02*
D03*
X711401D02*
D03*
X736801D02*
D03*
X762201D02*
D03*
X787601D02*
D03*
X813001D02*
D03*
X838401D02*
D03*
X863801D02*
D03*
X889201D02*
D03*
X914601D02*
D03*
X940001D02*
D03*
X965401D02*
D03*
X990801D02*
D03*
X1016201D02*
D03*
X1041601D02*
D03*
X1067001D02*
D03*
X1092401D02*
D03*
X1117800D02*
D03*
X1143200D02*
D03*
X1168600D02*
D03*
X1194000D02*
D03*
X1219400D02*
D03*
X1244800D02*
D03*
X1270200D02*
D03*
X1295600D02*
D03*
X2616400D02*
D03*
X2591000D02*
D03*
X2565600D02*
D03*
X2540200D02*
D03*
X2514800D02*
D03*
X2489400D02*
D03*
X2464000D02*
D03*
X2438600D02*
D03*
X2413200D02*
D03*
X2387800D02*
D03*
X2362400D02*
D03*
X2337000D02*
D03*
X2311600D02*
D03*
X2286200D02*
D03*
X2260800D02*
D03*
X2235400D02*
D03*
X2210000D02*
D03*
X2184600D02*
D03*
X2159200D02*
D03*
X2133800D02*
D03*
X2108400D02*
D03*
X2083000D02*
D03*
X2057600D02*
D03*
X2032200D02*
D03*
X2006800D02*
D03*
X1981400D02*
D03*
X1956000D02*
D03*
X1930600D02*
D03*
X1905200D02*
D03*
X1879800D02*
D03*
X1854400D02*
D03*
X1829000D02*
D03*
X1803600D02*
D03*
X1778200D02*
D03*
X1752800D02*
D03*
X1727400D02*
D03*
X1702000D02*
D03*
X1676600D02*
D03*
X1651200D02*
D03*
X1625800D02*
D03*
X1600400D02*
D03*
X1575000D02*
D03*
X1549600D02*
D03*
X1524200D02*
D03*
X1498800D02*
D03*
X1473400D02*
D03*
X1448000D02*
D03*
X1422600D02*
D03*
X1397200D02*
D03*
X1371800D02*
D03*
X1346400D02*
D03*
X1321000D02*
D03*
X166500Y69250D02*
D03*
X73250Y31000D02*
D03*
X83500D02*
D03*
X93750D02*
D03*
Y20751D02*
D03*
Y10501D02*
D03*
X183500Y42500D02*
D03*
X224750Y3000D02*
D03*
X437500Y60000D02*
D03*
X437500Y43750D02*
D03*
X306750Y-3250D02*
D03*
X441500Y23250D02*
D03*
X459000Y66500D02*
D03*
X459000Y53500D02*
D03*
X437500Y34000D02*
D03*
X264500Y68750D02*
D03*
X248500D02*
D03*
X490250Y47000D02*
D03*
Y60000D02*
D03*
Y73000D02*
D03*
X406250Y18750D02*
D03*
X1574000Y32750D02*
D03*
X415000Y18750D02*
D03*
X333019Y91831D02*
D03*
X231000Y84500D02*
D03*
X384000Y-5000D02*
D03*
Y5000D02*
D03*
X404750Y-5000D02*
D03*
Y5000D02*
D03*
X331500Y12500D02*
D03*
X331519Y831D02*
D03*
D60*
X555745Y65559D02*
D03*
X1609750Y66750D02*
D03*
X2659536Y66715D02*
D03*
X2632730Y250D02*
D03*
Y10250D02*
D03*
X2659750Y24501D02*
D03*
X1582750Y10501D02*
D03*
Y501D02*
D03*
X1610000Y24750D02*
D03*
X538000Y10501D02*
D03*
X515500Y92500D02*
D03*
X428250Y-11750D02*
D03*
X360500Y-10750D02*
D03*
X482000Y23250D02*
D03*
X470500D02*
D03*
X565250Y24750D02*
D03*
X362500Y92000D02*
D03*
X538000Y501D02*
D03*
X425250Y91250D02*
D03*
X425000Y18250D02*
D03*
D61*
X205500Y41000D02*
D03*
X157000Y8750D02*
D03*
X157000Y-750D02*
D03*
X172500Y42250D02*
D03*
X207750Y-8750D02*
D03*
X399250Y28750D02*
D03*
X178000Y67750D02*
D03*
M02*
